<?xml version="1.0" encoding="UTF-8"?>
<svg width="14px" height="6px" viewBox="0 0 14 6" version="1.1" xmlns="http://www.w3.org/2000/svg" xmlns:xlink="http://www.w3.org/1999/xlink">
    <title>img/icon/arrow_down</title>
    <g id="Page-1" stroke="none" stroke-width="1" fill="none" fill-rule="evenodd">
        <g id="web8" transform="translate(-318.000000, -196.000000)" stroke="#333333">
            <g id="Group" transform="translate(322.000000, 193.000000)">
                <g id="img/icon/arrow_down" transform="translate(3.000000, 6.000000) rotate(-90.000000) translate(-3.000000, -6.000000) ">
                    <polyline id="Stroke-1" points="6 12 0 6 6 0"></polyline>
                </g>
            </g>
        </g>
    </g>
</svg>